DEA 1 - Budweiser
…
1. How many breweries are present in each state?

#This code will identify the number of breweries for each state
#How many Breweries are in each state?

SummaryBrewery <- Breweries %>% count(State, sort = TRUE)
names(SummaryBrewery)[2] <- "Brewery_Count"
#Summary of Breweries 
SummaryBrewery

## # A tibble: 51 x 2
##    State Brewery_Count
##    <chr>         <int>
##  1 CO               47
##  2 CA               39
##  3 MI               32
##  4 OR               29
##  5 TX               28
##  6 PA               25
##  7 MA               23
##  8 WA               23
##  9 IN               22
## 10 WI               20
## # ... with 41 more rows
…
3 Answer. There are 1005 lines of the 2410 that have missing values. Original thought was to create a regression to fill in the missing values for IBU and ABV. However since we are missing ~40% of the data, it didn’t make sense to regress that many values and feared the outcome will skew the analysis incorrectly. As such, we omitted the lines with missing data to focus on the 1405 lines that have complete columns

4. Compute the median alcohol content and international bitterness unit for each state. Plot a bar chart to compare.

#This code will create a table of Medians for ABV and IBU for each state and graphically display a bar chart 

# created a clean table with stats for ABV and IBU
bbdf_clean_stats = bbdf_clean %>% group_by(State) %>% summarise(Mean_ABV=mean(ABV), Max_ABV=max(ABV), Min_ABV=min(ABV), Median_ABV=median(ABV), Std_ABV=sd(ABV),Mean_IBU=mean(IBU), Max_IBU=max(IBU), Min_IBU=min(IBU), Median_IBU=median(IBU), Std_IBU=sd(IBU))

# Clean table with Medians for ABV and IBU
bbdf_clean_Medians = bbdf_clean_stats %>% select(State, Median_ABV, Median_IBU)
bbdf_clean_Medians

## # A tibble: 50 x 3
##    State Median_ABV Median_IBU
##    <chr>      <dbl>      <dbl>
##  1 AK         0.057       46  
##  2 AL         0.06        43  
##  3 AR         0.04        39  
##  4 AZ         0.055       20  
##  5 CA         0.058       42  
##  6 CO         0.065       40  
##  7 CT         0.061       29  
##  8 DC         0.059       47.5
##  9 DE         0.055       52  
## 10 FL         0.062       55  
## # ... with 40 more rows
…
